{
  "report": {
    "tables": [
      {
        "heading": "My Table",
        "evaluatorClass": "com.cariq.www.coreiq.tableUtil.application.mis.arbiter.CellValueArbiterDefaultOn",
        "argumentJSON": {},
        "rows": [
          {
            "style": "Dark Blue",
            "rowLabel": "Row Labels",
            "evaluatorClass": "com.cariq.www.coreiq.tableUtil.application.mis.arbiter.CellValueArbiterDefaultOff",
            "argumentJSON": {}
          },
          {
            "style": "Subheader2",
            "rowLabel": "INVALID_CARNOT",
            "evaluatorClass": "com.cariq.www.coreiq.tableUtil.application.mis.arbiter.KeyValueArbiter",
            "argumentJSON": {
              "key": "status",
              "value": "INVALID_CARNOT"
            }
          },
          {
            "rowLabel": "Under verification",
            "evaluatorClass": "com.cariq.www.coreiq.tableUtil.application.mis.arbiter.KeyValueArbiter",
            "argumentJSON": {
              "key": "status",
              "value": "Under verification"
            }
          },
          {
            "rowLabel": "User Created",
            "evaluatorClass": "com.cariq.www.coreiq.tableUtil.application.mis.arbiter.KeyValueArbiter",
            "argumentJSON": {
              "key": "status",
              "value": "User Created"
            }  	
          }
        ],
        "columns": [
          {
            "rowLabel": "Row Labels",
            "evaluatorClass": "com.cariq.www.coreiq.tableUtil.application.mis.arbiter.CellValueArbiterDefaultOff",
            "argumentJSON": {}
          },
          {
            "rowLabel": "Count of Policy Number",
            "evaluatorClass": "com.cariq.www.coreiq.tableUtil.application.mis.arbiter.CellValueArbiterDefaultOn",
            "argumentJSON": {}
          }
        ]
      }
    ]
  }
}
